<svg xmlns="http://www.w3.org/2000/svg" width="34" height="42" viewBox="0 0 34 42">
    <g fill="#FFF">
        <path d="M13.005 18.024c.13 0 .268-.026.389-.078l19.614-7.971c.389-.156.648-.536.648-.96 0-.422-.26-.802-.648-.958L13.411.077c-.371-.156-.803-.07-1.097.207-.293.276-.406.7-.276 1.08l2.54 7.643-2.557 7.644c-.13.38-.018.803.276 1.088.199.19.45.285.708.285zM27.316 7.98h-10.9l-1.7-5.13 12.6 5.13zm-10.9 2.073h10.9l-12.618 5.13 1.719-5.13zM9.119 39.927c-.277 0-.545.112-.735.302-.19.19-.302.458-.302.735 0 .276.112.544.302.734.19.19.458.302.735.302.276 0 .544-.112.734-.302.19-.19.302-.458.302-.734 0-.277-.112-.545-.302-.735-.199-.19-.458-.302-.734-.302zM21.098 39.927c-.57 0-1.037.467-1.037 1.037 0 .57.467 1.036 1.037 1.036.57 0 1.036-.466 1.036-1.036 0-.57-.466-1.037-1.036-1.037zM8.574 8.955c-.103-.56-.647-.932-1.209-.829-.561.104-.932.648-.829 1.21.095.5.527.846 1.02.846.06 0 .129-.009.19-.017.56-.104.932-.64.828-1.21zM13.36 23.958c-.57 0-1.037.466-1.037 1.036 0 .57.466 1.036 1.036 1.036.57 0 1.037-.466 1.037-1.036 0-.579-.467-1.036-1.037-1.036zM9.36 23.958c-.57 0-1.036.466-1.036 1.036 0 .57.466 1.036 1.036 1.036.57 0 1.037-.466 1.037-1.036 0-.579-.458-1.036-1.037-1.036zM13.109 39.927c-.57 0-1.037.467-1.037 1.037 0 .57.467 1.036 1.037 1.036.57 0 1.036-.466 1.036-1.036 0-.57-.466-1.037-1.036-1.037zM4.774 10.165c-.362-.44-1.019-.51-1.46-.147-.44.363-.509 1.019-.146 1.46.207.25.5.38.803.38.233 0 .466-.078.656-.234.45-.371.51-1.019.147-1.46zM2.123 17.79c-.06-.57-.579-.975-1.149-.915-.57.07-.976.58-.915 1.15.06.526.51.923 1.027.923.044 0 .078 0 .121-.008.57-.07.985-.579.916-1.15zM5.958 23.24c-.51-.25-1.132-.042-1.391.467-.25.518-.043 1.132.466 1.39.147.07.303.104.458.104.38 0 .752-.207.933-.578.259-.51.043-1.132-.466-1.382zM1.242 14.958c.13.052.259.078.388.078.406 0 .795-.242.96-.648.215-.527-.035-1.131-.57-1.347-.528-.216-1.132.043-1.348.57-.216.527.034 1.131.57 1.347zM1.898 20.753c-.466.329-.578.976-.25 1.443.198.285.527.44.846.44.207 0 .415-.06.596-.19.466-.328.579-.976.25-1.442-.328-.467-.975-.579-1.442-.25zM21.34 23.958c-.57 0-1.037.466-1.037 1.036 0 .57.467 1.036 1.037 1.036.57 0 1.036-.466 1.036-1.036 0-.579-.466-1.036-1.036-1.036zM25.416 23.984c-.57-.052-1.07.37-1.122.941-.052.57.37 1.07.94 1.123h.087c.536 0 .985-.406 1.037-.95.052-.562-.372-1.063-.942-1.114zM28.301 38.882c-.484.302-.63.942-.328 1.425.198.311.535.492.88.492.19 0 .38-.051.545-.155.484-.302.63-.941.328-1.425-.302-.492-.941-.64-1.425-.337zM25.028 39.919c-.57.034-1.01.518-.976 1.088.034.553.492.976 1.036.976h.06c.57-.035 1.011-.518.977-1.089-.035-.57-.527-1.01-1.097-.975zM17.35 23.958c-.57 0-1.037.466-1.037 1.036 0 .57.466 1.036 1.037 1.036.57 0 1.036-.466 1.036-1.036 0-.579-.466-1.036-1.036-1.036zM31.22 28.345c-.51.268-.7.898-.432 1.4.19.353.545.552.916.552.164 0 .328-.043.484-.12.51-.269.7-.9.431-1.4-.267-.5-.89-.7-1.399-.432zM32.093 36.015c-.501-.285-1.132-.104-1.417.388-.285.501-.103 1.132.389 1.417.164.095.337.138.51.138.362 0 .708-.19.906-.527.285-.51.113-1.14-.388-1.416zM32.637 32.068c-.57-.009-1.045.449-1.054 1.019-.009.57.45 1.045 1.02 1.053h.016c.562 0 1.028-.457 1.037-1.019.008-.578-.45-1.045-1.02-1.053zM17.099 39.927c-.57 0-1.036.467-1.036 1.037 0 .57.466 1.036 1.036 1.036.57 0 1.036-.466 1.036-1.036 0-.57-.457-1.037-1.036-1.037zM29.631 25.46c-.475-.32-1.123-.19-1.434.285-.32.475-.19 1.123.285 1.434.173.121.38.173.58.173.336 0 .664-.164.863-.458.31-.466.181-1.114-.294-1.434z"/>
        <path d="M12.59 9.016c0-.276-.112-.544-.302-.734-.19-.19-.457-.303-.734-.303-.276 0-.544.113-.734.303-.19.19-.302.458-.302.734 0 .276.112.544.302.734.19.19.458.302.734.302.277 0 .544-.112.734-.302.19-.19.303-.466.303-.734z"/>
    </g>
</svg>
