<?xml version="1.0" encoding="iso-8859-1"?>
<!-- Generator: Adobe Illustrator 16.0.0, SVG Export Plug-In . SVG Version: 6.00 Build 0)  -->
<!DOCTYPE svg PUBLIC "-//W3C//DTD SVG 1.1//EN" "http://www.w3.org/Graphics/SVG/1.1/DTD/svg11.dtd">
<svg version="1.1" id="Capa_1" xmlns="http://www.w3.org/2000/svg" xmlns:xlink="http://www.w3.org/1999/xlink" x="0px" y="0px"
	 width="34.176px" height="34.176px" viewBox="0 0 34.176 34.176" style="enable-background:new 0 0 34.176 34.176;"
	 xml:space="preserve">
<g>
	<path d="M26.903,24.359v-4.588H21.86h-2.09v2.09v5.041h4.59l-7.272,7.273l-7.271-7.271h4.588v-5.041v-2.09h-2.092H7.272v4.588
		l-7.271-7.274l7.271-7.27v4.586h5.041h2.092v-2.09V7.271H9.817L17.088,0l7.272,7.271h-4.59v5.043v2.09h2.09h5.043V9.818
		l7.271,7.269L26.903,24.359z"/>
</g>
<g>
</g>
<g>
</g>
<g>
</g>
<g>
</g>
<g>
</g>
<g>
</g>
<g>
</g>
<g>
</g>
<g>
</g>
<g>
</g>
<g>
</g>
<g>
</g>
<g>
</g>
<g>
</g>
<g>
</g>
</svg>
