<svg xmlns="http://www.w3.org/2000/svg" width="18" height="17" viewBox="0 0 18 17">
    <g fill="#559DDF">
        <path d="M17.698 7.553L9.622.24c-.355-.321-.89-.321-1.244 0L.302 7.553c-.284.257-.377.653-.239 1.009.139.356.477.586.861.586h1.29v7.326c0 .29.237.526.53.526H7.17c.292 0 .53-.236.53-.526v-4.448h2.6v4.448c0 .29.238.526.53.526h4.427c.292 0 .529-.235.529-.526V9.148h1.29c.384 0 .722-.23.86-.586.14-.356.046-.752-.238-1.01zM15.482 2H12l4 3V2.428C16 2.19 15.768 2 15.482 2z"/>
    </g>
</svg>
