<svg xmlns="http://www.w3.org/2000/svg" width="42" height="44" viewBox="0 0 42 44">
    <g fill="#FFF">
        <path d="M33.254 10.54c-.43 0-.779.359-.779.79 0 .42.339.788.78.788.44 0 .788-.369.788-.789 0-.43-.358-.789-.789-.789zM33.387 4.566c-1.383 0-2.018.82-2.018 1.373 0 .4.338.584.615.584.553 0 .328-.789 1.373-.789.512 0 .922.226.922.697 0 .553-.574.871-.912 1.158-.297.256-.687.676-.687 1.558 0 .532.144.686.564.686.502 0 .605-.225.605-.42 0-.533.01-.84.573-1.28.277-.216 1.148-.913 1.148-1.876 0-.963-.87-1.69-2.183-1.69z"/>
        <path d="M33.862.006c-4.796-.185-8.757 3.662-8.757 8.417 0 1.525.408 3.006 1.184 4.307l-1.116 2.267-.006.024c-.138.513-.013 1.07.358 1.45.285.292.66.448 1.052.448.129 0 .26-.017.389-.051l.061-.017 2.295-1.129c1.276.737 2.723 1.125 4.207 1.125 4.755 0 8.603-3.96 8.417-8.756-.17-4.372-3.712-7.915-8.084-8.085zm-.333 15.545c-1.361 0-2.684-.385-3.826-1.113-.19-.122-.431-.135-.634-.035l-2.48 1.22c-.062.003-.106-.026-.134-.054-.027-.028-.056-.072-.053-.134l1.21-2.459c.1-.205.085-.448-.04-.639l-.001-.001c-.852-1.295-1.257-2.826-1.154-4.391.241-3.657 3.27-6.557 6.934-6.647 4.011-.098 7.305 3.136 7.305 7.125 0 3.93-3.197 7.128-7.127 7.128zM21.275 18.196l-.008-.958c0-5.105-4.153-9.258-9.259-9.258-1.623 0-3.221.426-4.62 1.233-.31.179-.416.575-.237.885.178.31.575.416.885.238 1.202-.694 2.576-1.06 3.972-1.06 4.166 0 7.594 3.214 7.935 7.29-1.89-1.214-4.28-1.336-6.321-.268-1.115.583-2.436.683-3.626.273-1.945-.67-4.077-.565-5.94.275.092-1.91.86-3.707 2.186-5.099.247-.259.237-.67-.023-.916-.259-.247-.669-.237-.916.022-1.646 1.73-2.553 3.997-2.553 6.38l.007.999c-1.547.257-2.73 1.603-2.73 3.221 0 1.7 1.305 3.1 2.966 3.253.705 2.885 2.767 5.244 5.468 6.36-1.086.424-2.098 1.034-2.984 1.806-.27.235-.297.644-.062.914.128.147.308.222.489.222.15 0 .302-.052.425-.16.963-.839 2.097-1.459 3.313-1.817.1 1.291 1.181 2.312 2.498 2.312 1.318 0 2.4-1.022 2.498-2.316 3.727 1.092 6.357 4.547 6.357 8.496v1.17c0 .396-.322.718-.717.718h-2.433V40.64c0-.358-.29-.648-.648-.648-.358 0-.648.29-.648.648v1.772H8.505V40.64c0-.358-.29-.648-.648-.648-.358 0-.648.29-.648.648v1.772H4.01c-.396 0-.718-.322-.718-.717v-1.171c0-1.744.506-3.43 1.464-4.877.197-.299.115-.7-.183-.898-.299-.198-.7-.116-.898.183-1.098 1.66-1.679 3.593-1.679 5.592v1.17c0 1.111.904 2.014 2.014 2.014h16.268c1.11 0 2.013-.903 2.013-2.013v-1.171c0-4.29-2.708-8.071-6.628-9.52 2.624-1.14 4.62-3.46 5.315-6.286l.06.003c1.801 0 3.267-1.465 3.267-3.267 0-1.721-1.34-3.135-3.03-3.257zM1.323 21.454c0-.898.603-1.656 1.425-1.894l-.02 2.946c0 .285.013.567.039.846-.832-.231-1.444-.994-1.444-1.898zM12.14 33.047c-.667 0-1.21-.543-1.21-1.21v-.133c.347.04.7.06 1.056.06.464 0 .92-.034 1.365-.1v.173c0 .667-.543 1.21-1.21 1.21zm-.154-2.579c-4.39 0-7.962-3.572-7.962-7.958l.028-4.213.076-.041c1.666-.91 3.651-1.077 5.446-.46 1.525.526 3.22.398 4.649-.35 1.849-.967 4.059-.705 5.63.668l.126.11-.03 4.282c0 4.39-3.572 7.962-7.963 7.962zm9.215-7.05c.029-.3.044-.602.044-.908l.02-3.014c.98.114 1.744.948 1.744 1.958 0 1.032-.797 1.88-1.808 1.963z"/>
        <path d="M7.917 22.371c-.358 0-.648.29-.648.648v.617c0 .358.29.648.648.648.358 0 .648-.29.648-.648v-.617c0-.358-.29-.648-.648-.648zM15.701 22.371c-.358 0-.648.29-.648.648v.617c0 .358.29.648.648.648.358 0 .648-.29.648-.648v-.617c0-.358-.29-.648-.648-.648zM12.406 25.055c-.638 0-1.226.347-1.536.905-.173.313-.06.707.253.88.1.056.207.082.313.082.228 0 .45-.12.568-.334.08-.147.235-.237.402-.237.167 0 .321.09.402.236.175.313.57.425.882.25.312-.173.425-.568.25-.88-.31-.557-.897-.902-1.534-.902zM8.745 19.034c-.784-.339-1.683-.266-2.403.195-.302.193-.39.593-.197.895.123.193.332.299.546.299.12 0 .24-.033.349-.102.357-.229.803-.265 1.191-.097.329.142.71-.01.852-.338.142-.328-.01-.71-.338-.852zM17.227 20.37c-.416.086-.845-.038-1.149-.333-.257-.25-.667-.244-.916.013-.25.257-.243.667.013.916.485.47 1.127.726 1.79.726.174 0 .351-.018.526-.054.35-.073.576-.417.502-.767-.073-.35-.416-.575-.766-.502z"/>
    </g>
</svg>
